{"1476103251":1,"1476103250":1,"1476103253":2}{"1476103299":2,"1476103298":1,"1476103296":2}{"1476126282":1,"1476126281":1,"1476126280":2,"1476126286":1,"1476126285":2,"1476126284":3}
{}
{"1476132926":1,"1476132927":4,"1476132932":3,"1476132934":1,"1476132928":4,"1476132929":3,"1476132930":1,"1476132931":2}
{"1476133044":1,"1476133045":2,"1476133046":3,"1476133040":1}
{"1476189213":1,"1476189208":1,"1476189210":1,"1476189211":1}
